[
  "<strong>Reflekslerle Matematik </strong> nedir?",
  "Satın aldığım pakette <strong>Reflekslerle Matematik</strong> neden yok?",
  "<strong>Reflekslerle Matematik</strong> hangi eğitim paketlerinde var?",
  "<strong>Reflekslerle Matematiğin</strong> diğer eğitim metodlarından farkı var mı?"
]
