<svg width="16" height="16" viewBox="0 0 16 16" fill="none" xmlns="http://www.w3.org/2000/svg">
<path d="M15.76 2.96798C15.5661 2.55907 15.2603 2.21351 14.878 1.97138C14.4957 1.72925 14.0525 1.60047 13.6 1.59998H2.4C1.94746 1.60047 1.50434 1.72925 1.12202 1.97138C0.739712 2.21351 0.433879 2.55907 0.24 2.96798C0.0827519 3.28932 0.00068037 3.64222 0 3.99997L0 12C0.00187198 12.6359 0.25533 13.2453 0.705012 13.695C1.15469 14.1446 1.76406 14.3981 2.4 14.4H13.6C14.2359 14.3981 14.8453 14.1446 15.295 13.695C15.7447 13.2453 15.9981 12.6359 16 12V3.99997C15.9993 3.64222 15.9172 3.28932 15.76 2.96798Z" fill="#C8DAEA"/>
<path d="M15.76 2.96798L9.69599 9.03197C9.47349 9.2551 9.20916 9.43213 8.91813 9.55292C8.62709 9.6737 8.31509 9.73588 7.99999 9.73588C7.68489 9.73588 7.37288 9.6737 7.08185 9.55292C6.79082 9.43213 6.52648 9.2551 6.30399 9.03197L0.23999 2.96798C0.433869 2.55907 0.739702 2.21351 1.12201 1.97138C1.50433 1.72925 1.94745 1.60047 2.39999 1.59998H13.6C14.0525 1.60047 14.4957 1.72925 14.878 1.97138C15.2603 2.21351 15.5661 2.55907 15.76 2.96798Z" fill="white"/>
</svg>
