<svg width="420" height="120" viewBox="0 0 420 120" fill="none" xmlns="http://www.w3.org/2000/svg">
<path opacity="0.7" d="M0 66L420 19L401 79L0 120V66Z" fill="#CC171B"/>
<path opacity="0.5" d="M137 23L375 0L375.5 52.5L137 80V23Z" fill="#0B6AB2"/>
</svg>
