<svg width="31" height="26" viewBox="0 0 31 26" fill="none" xmlns="http://www.w3.org/2000/svg">
<path d="M8.6087 15.351L12.4235 23.6509C12.4235 23.6509 12.8764 24.4194 13.2861 24.3836C13.6957 24.3477 19.2348 17.4013 19.2348 17.4013L24.858 3.56974L8.52414 13.1306L8.6087 15.351Z" fill="#D5D7D9"/>
<path d="M12.8617 17.193L12.8261 23.5596C12.8261 23.5596 12.7496 25.5164 14.4939 23.4137C16.2383 21.311 17.9406 19.6589 17.9406 19.6589L12.8617 17.193Z" fill="#7F858D"/>
<path d="M8.6905 15.6525L2.2102 14.1288C2.2102 14.1288 1.43121 13.886 1.61129 13.165C1.64797 13.0155 1.73826 12.8841 2.01826 12.6459C3.32845 11.5402 26.9925 0.523037 26.9925 0.523037C27.3339 0.36715 27.7107 0.306946 28.0834 0.348728C28.1869 0.371501 28.2826 0.421567 28.3609 0.493831C28.4391 0.566095 28.497 0.657978 28.5288 0.760131C28.5884 0.940071 28.6231 1.12746 28.6318 1.31694C28.6461 1.48029 28.638 1.63416 28.6443 1.87366C28.7073 4.31318 25.84 22.8212 25.84 22.8212C25.84 22.8212 25.6667 23.9039 24.7147 24.0238C24.4802 24.0528 24.2423 24.0337 24.0152 23.9675C23.788 23.9014 23.5763 23.7896 23.3929 23.6388C21.3759 22.1727 14.5138 18.3402 12.9981 17.4978C12.965 17.4779 12.9363 17.4513 12.9141 17.4196C12.8918 17.3878 12.8764 17.3517 12.8689 17.3136C12.8397 17.2133 12.9388 17.0789 12.9388 17.0789C12.9388 17.0789 23.33 5.95985 23.5367 4.87071C23.5531 4.78697 23.462 4.75379 23.3472 4.79927C22.6219 5.14392 10.3621 14.5666 9.00889 15.6075C8.90773 15.6474 8.7987 15.6628 8.6905 15.6525Z" fill="#949BA5"/>
</svg>
