<svg width="32" height="32" viewBox="0 0 32 32" fill="none" xmlns="http://www.w3.org/2000/svg">
<g clip-path="url(#clip0)">
<path fill-rule="evenodd" clip-rule="evenodd" d="M29.3 5.87266C28.316 6.42907 27.2401 6.84124 26.0949 7.08354C27.2135 6.25483 28.0199 5.02543 28.3274 3.61805C27.2794 4.38644 26.0991 4.982 24.8155 5.35821C23.6745 4.30933 22.124 3.72768 20.4769 3.87178C17.3187 4.14808 14.9863 6.99975 15.2698 10.2401C15.3101 10.7001 15.3983 11.1424 15.5341 11.5636C10.7565 11.7346 6.33647 9.76971 3.2013 6.46254C2.78458 7.37533 2.59125 8.409 2.68525 9.48351C2.86328 11.5183 4.03063 13.2264 5.65844 14.1447C4.71945 14.1981 3.81199 14.0085 3.00103 13.6396L3.00734 13.7118C3.25617 16.5559 5.43658 18.7556 8.10314 19.0636C7.63548 19.2433 7.1356 19.3564 6.61333 19.4021C6.24495 19.4343 5.88168 19.4306 5.52692 19.3922C6.45937 21.6588 8.71989 23.1714 11.2288 22.9976C9.40846 24.7437 7.02164 25.8983 4.3415 26.1327C3.8798 26.1731 3.42067 26.1862 2.969 26.1716C5.64721 27.6121 8.74148 28.321 11.9717 28.0384C22.4991 27.1173 27.4718 17.6736 26.7933 9.91873C26.771 9.66354 26.7438 9.40877 26.712 9.15947C27.7579 8.23394 28.6384 7.11647 29.3 5.87266Z" fill="#949BA5"/>
</g>
<defs>
<clipPath id="clip0">
<rect width="28" height="28" fill="white" transform="translate(0.962463 3.23682) rotate(-5)"/>
</clipPath>
</defs>
</svg>
