<svg width="16" height="16" viewBox="0 0 16 16" fill="none" xmlns="http://www.w3.org/2000/svg">
<path fill-rule="evenodd" clip-rule="evenodd" d="M6.3527 4.3612C6.20062 3.9568 6.02498 3.98566 5.90805 3.98123C5.79102 3.97691 5.68855 3.97905 5.53045 3.98162C5.39666 3.9838 5.17752 4.01827 4.98645 4.21066C4.79512 4.40273 4.25909 4.86466 4.22202 5.8437C4.1852 6.82255 4.86773 7.79523 4.96305 7.93137C5.0583 8.06802 6.26641 10.1898 8.27445 11.0624C10.2827 11.9348 10.2932 11.6689 10.6616 11.6494C11.0303 11.6301 11.8661 11.2121 12.0508 10.7539C12.2356 10.2958 12.2504 9.89755 12.2034 9.81259C12.1564 9.72791 12.0248 9.67291 11.828 9.56616C11.631 9.4592 10.6639 8.94123 10.4826 8.86795C10.3011 8.79495 10.1687 8.75695 10.0275 8.95112C9.88616 9.14477 9.48495 9.57859 9.36334 9.70712C9.2412 9.8357 9.12366 9.84763 8.9267 9.74034C8.73027 9.63363 8.09195 9.39934 7.35177 8.6933C6.77584 8.14402 6.3978 7.47748 6.28823 7.27416C6.17862 7.0707 6.28752 6.96687 6.3918 6.8717C6.4853 6.78573 6.60098 6.64666 6.7058 6.53423C6.81005 6.4218 6.84684 6.3403 6.9187 6.20984C6.99037 6.07966 6.96155 5.96227 6.91505 5.86087C6.86852 5.75952 6.5047 4.76559 6.3527 4.3612Z" fill="#C8DAEA"/>
<path d="M8.14507 1.14286C9.93968 1.14286 11.6264 1.83579 12.8944 3.094C14.1601 4.34986 14.8571 6.01904 14.8571 7.794C14.8571 9.56879 14.1601 11.2379 12.8944 12.4939C11.6263 13.7521 9.93961 14.4452 8.14507 14.4452C7.00914 14.4452 5.8865 14.1586 4.89843 13.6166L4.46925 13.3811L4.00271 13.5293L1.808 14.2265L2.49996 12.1855L2.67132 11.6801L2.39379 11.2242C1.76546 10.1922 1.43336 9.006 1.43336 7.794C1.43336 6.01904 2.13043 4.34986 3.39611 3.09396C4.66414 1.83579 6.35068 1.14286 8.14507 1.14286ZM8.14507 0C3.80732 0 0.2905 3.48932 0.2905 7.794C0.2905 9.26646 0.702357 10.6437 1.41761 11.8185L0 16L4.34871 14.6185C5.474 15.2358 6.76818 15.588 8.14507 15.588C12.4834 15.588 16 12.0982 16 7.794C16 3.48932 12.4834 0 8.14507 0Z" fill="white"/>
</svg>
