<svg width="32" height="32" viewBox="0 0 32 32" fill="none" xmlns="http://www.w3.org/2000/svg">
<g clip-path="url(#clip0)">
<path fill-rule="evenodd" clip-rule="evenodd" d="M13.3094 19.9322L12.618 12.0395L20.5009 15.3401L13.3094 19.9322ZM29.047 9.22396C29.047 9.22396 28.6048 7.31216 27.6943 6.5329C26.5355 5.50645 25.3461 5.60519 24.7956 5.58789C20.8674 5.64496 15.0124 6.15722 15.0124 6.15722L15.0002 6.15828C15.0002 6.15828 9.14519 6.67053 5.26673 7.29645C4.72675 7.40915 3.53912 7.51837 2.57535 8.73052C1.814 9.65605 1.71138 11.6155 1.71138 11.6155C1.71138 11.6155 1.63136 13.9136 1.8302 16.1863L2.01668 18.3178C2.2156 20.5914 2.69337 22.8398 2.69337 22.8398C2.69337 22.8398 3.13469 24.7516 4.04519 25.5309C5.20481 26.5573 6.59553 26.4002 7.22638 26.4627C9.47675 26.4834 16.7349 25.9156 16.7349 25.9156C16.7349 25.9156 22.5952 25.3941 26.4737 24.7681C27.0127 24.6546 28.2012 24.5453 29.1641 23.3333C29.9255 22.4077 30.029 20.4482 30.029 20.4482C30.029 20.4482 30.109 18.151 29.9101 15.8774L29.7237 13.746C29.5248 11.4732 29.047 9.22396 29.047 9.22396Z" fill="#949BA5"/>
</g>
<defs>
<clipPath id="clip0">
<rect width="28" height="28" fill="white" transform="translate(0.703674 3.31018) rotate(-5)"/>
</clipPath>
</defs>
</svg>
